{
  "mnemonic": [
    "fiscal",
    "stamp",
    "worth",
    "elegant",
    "virus",
    "radio",
    "salt",
    "ancient",
    "proud",
    "mirror",
    "relief",
    "kiwi",
    "sample",
    "museum",
    "mountain"
  ],
  "secret": "96a447c951b7695d99f29836d0a07bf149124ff7",
  "amount": "1013047916",
  "pkh": "tz1XWz8NuadJrHiQwLUxFGMF3g5frwUGnxqU",
  "password": "3ldx9JjZOy",
  "email": "kfmwwkwr.iavbcxow@tezos.example.org"
}
